My Blog: Summarizing Toronto Public School Immunization Data from 2018/2019
…
Similarly, MMR coverage is also heavily skewed to the left with a median of approximately 94%. So if we pick a similar cut-off of Q1â€¦

quantile(data$mmr_pct)

     0%     25%     50%     75%    100% 
 51.700  90.975  93.600  95.800 100.000 

low_vac <- data %>% filter(mmr_pct <90.975) #filter for vaccination rate less than 93.6%
low_vac

# A tibble: 202 x 9
   `_id` school enrolled dtp_pct dtp_exempt mmr_pct mmr_exempt   lat
   <int> <chr>     <int>   <dbl>      <dbl>   <dbl>      <dbl> <dbl>
 1     2 ACADE~      110    88.2        1.8    90          1.8  43.8
 2     4 AFRIC~       66    71.2       19.7    72.7       19.7  43.7
 3    15 ALPHA~       36    69.4       27.8    69.4       27.8  43.6
 4    16 ALPHA~       19    57.9       21.1    68.4       21.1  43.7
 5    32 BANNO~       43    79.1        2.3    90.7        2.3  43.7
 6    34 BAYCR~       61    91.8        4.9    90.2        4.9  43.7
 7    35 BAYVI~      453    90.3        0.4    90.3        0.4  43.8
 8    36 BEACH~       34    82.4       17.6    82.4       17.6  43.7
 9    39 BELLM~      193    89.1        1      88.1        1    43.8
10    40 BEN H~       45    84.4       11.1    84.4       11.1  43.8
# ... with 192 more rows, and 1 more variable: lon <dbl>
…
